{
	"entityDetails": {
		"entityName": "blacklisted_pan",
		"entityType": "snapshot",
		"dataFormat": "csv",
		"sourceType": "filesystem",
		"dataFormatOption": [
			{
				"key": "delimiter",
				"value": "|"
			},
			{
				"key": "header",
				"value": "true"
			},
			{
				"key": "inferSchema",
				"value": "true"
			}

		],
		"extractionType": "batch",
		"fileSystem": "hdfs",
		"pathUrl": "hdfs://localhost:54310/nse/aipoc/blacklisted_pan",
		"partitionDetails": {
			"partitionColumn": [
				"date"
			],
			"partitionType": "daily",
			"partitionFormat": [
				"yyyy-MM-dd"
			],
			"numberOfPartitions": 1
		},
		"primaryColumns": [
			"PAN"
		]
	},
	"sourceSchema": [{
			"columnName": "Order Date",
			"dataType": "string"
		},
		{
			"columnName": "Order Particulars",
			"dataType": "string"
		},
		{
			"columnName": "Entity / Individual Name",
			"dataType": "string"
		},
		{
			"columnName": "PAN",
			"dataType": "string"
		},
		{
			"columnName": "Period",
			"dataType": "string"
		},
		{
			"columnName": "DIN of entities debarred from directorships",
			"dataType": "string"
		},
		{
			"columnName": "NSE Circular No",
			"dataType": "string"
		},
		{
			"columnName": "Date of NSE circular",
			"dataType": "string"
		}

	],
	"targetSchema": [{
			"columnName": "OrderDate",
			"dataType": "string"
		},
		{
			"columnName": "OrderParticulars",
			"dataType": "string"
		},
		{
			"columnName": "EntityOrIndividualName",
			"dataType": "string"
		},
		{
			"columnName": "PAN",
			"dataType": "string"
		},
		{
			"columnName": "Period",
			"dataType": "string"
		},
		{
			"columnName": "DINOfEntitiesDebarredFromDirectorships",
			"dataType": "string"
		},
		{
			"columnName": "NSECircularNo",
			"dataType": "string"
		},
		{
			"columnName": "DateOfNSECircular",
			"dataType": "string"
		}

	],
	"columnMapping": [{
			"sourceColumn": "Order Date",
			"targetColumn": "OrderDate"
		},
		{
			"sourceColumn": "Order Particulars",
			"targetColumn": "OrderParticulars"
		},
		{
			"sourceColumn": "Entity / Individual Name",
			"targetColumn": "EntityOrIndividualName"
		},
		{
			"sourceColumn": "PAN",
			"targetColumn": "PAN"
		},
		{
			"sourceColumn": "Period",
			"targetColumn": "Period"
		},
		{
			"sourceColumn": "DIN of entities debarred from directorships",
			"targetColumn": "DINOfEntitiesDebarredFromDirectorships"
		},
		{
			"sourceColumn": "NSE Circular No",
			"targetColumn": "NSECircularNo"
		},
		{
			"sourceColumn": "Date of NSE circular",
			"targetColumn": "DateOfNSECircular"
		}
	],
	"validationsDetails": [],
	"transformationsDetails": [],
	"storageDetails": [{
			"recordType": "invalid-records",
			"dataFormat": "csv",
			"persistFlag": "true",
			"fileSystem": "hdfs",
			"pathUrl": "hdfs://localhost:54310/nse/invalid-records",
			"storageHandler": "PersistHadoopFS"
		},
		{
			"recordType": "audit-records",
			"dataFormat": "csv",
			"persistFlag": "false",
			"fileSystem": "hdfs",
			"pathUrl": "hdfs://localhost:54310/nse/audit-records",
			"storageHandler": "PersistHadoopFS"
		},
		{
			"recordType": "valid-records",
			"dataFormat": "csv",
			"fileSystem": "hdfs",
			"pathUrl": "hdfs://localhost:54310/nse/valid-records/blacklisted_pan",
			"storageHandler": "PersistHadoopFS"
		}
	]
}