﻿^C:\HADOOP_SRC\HADOOP-2.4.0-SRC\HADOOP-COMMON-PROJECT\HADOOP-COMMON\SRC\MAIN\WINUTILS\READLINK.C
/c /ZI /nologo /W4 /WX- /Od /D WIN32 /D _DEBUG /D _CONSOLE /D _UNICODE /D UNICODE /Gm /EHsc /RTC1 /MDd /GS /fp:precise /Zc:wchar_t /Zc:forScope /Zc:inline /Fo"..\..\..\TARGET\WINUTILS\DEBUG\\" /Fd"..\..\..\TARGET\WINUTILS\DEBUG\VC140.PDB" /Gd /TC C:\HADOOP_SRC\HADOOP-2.4.0-SRC\HADOOP-COMMON-PROJECT\HADOOP-COMMON\SRC\MAIN\WINUTILS\READLINK.C
^C:\HADOOP_SRC\HADOOP-2.4.0-SRC\HADOOP-COMMON-PROJECT\HADOOP-COMMON\SRC\MAIN\WINUTILS\SYMLINK.C
/c /ZI /nologo /W4 /WX- /Od /D WIN32 /D _DEBUG /D _CONSOLE /D _UNICODE /D UNICODE /Gm /EHsc /RTC1 /MDd /GS /fp:precise /Zc:wchar_t /Zc:forScope /Zc:inline /Fo"..\..\..\TARGET\WINUTILS\DEBUG\\" /Fd"..\..\..\TARGET\WINUTILS\DEBUG\VC140.PDB" /Gd /TC C:\HADOOP_SRC\HADOOP-2.4.0-SRC\HADOOP-COMMON-PROJECT\HADOOP-COMMON\SRC\MAIN\WINUTILS\SYMLINK.C
^C:\HADOOP_SRC\HADOOP-2.4.0-SRC\HADOOP-COMMON-PROJECT\HADOOP-COMMON\SRC\MAIN\WINUTILS\SYSTEMINFO.C
/c /ZI /nologo /W4 /WX- /Od /D WIN32 /D _DEBUG /D _CONSOLE /D _UNICODE /D UNICODE /Gm /EHsc /RTC1 /MDd /GS /fp:precise /Zc:wchar_t /Zc:forScope /Zc:inline /Fo"..\..\..\TARGET\WINUTILS\DEBUG\\" /Fd"..\..\..\TARGET\WINUTILS\DEBUG\VC140.PDB" /Gd /TC C:\HADOOP_SRC\HADOOP-2.4.0-SRC\HADOOP-COMMON-PROJECT\HADOOP-COMMON\SRC\MAIN\WINUTILS\SYSTEMINFO.C
^C:\HADOOP_SRC\HADOOP-2.4.0-SRC\HADOOP-COMMON-PROJECT\HADOOP-COMMON\SRC\MAIN\WINUTILS\CHMOD.C
/c /ZI /nologo /W4 /WX- /Od /D WIN32 /D _DEBUG /D _CONSOLE /D _UNICODE /D UNICODE /Gm /EHsc /RTC1 /MDd /GS /fp:precise /Zc:wchar_t /Zc:forScope /Zc:inline /Fo"..\..\..\TARGET\WINUTILS\DEBUG\\" /Fd"..\..\..\TARGET\WINUTILS\DEBUG\VC140.PDB" /Gd /TC C:\HADOOP_SRC\HADOOP-2.4.0-SRC\HADOOP-COMMON-PROJECT\HADOOP-COMMON\SRC\MAIN\WINUTILS\CHMOD.C
^C:\HADOOP_SRC\HADOOP-2.4.0-SRC\HADOOP-COMMON-PROJECT\HADOOP-COMMON\SRC\MAIN\WINUTILS\CHOWN.C
/c /ZI /nologo /W4 /WX- /Od /D WIN32 /D _DEBUG /D _CONSOLE /D _UNICODE /D UNICODE /Gm /EHsc /RTC1 /MDd /GS /fp:precise /Zc:wchar_t /Zc:forScope /Zc:inline /Fo"..\..\..\TARGET\WINUTILS\DEBUG\\" /Fd"..\..\..\TARGET\WINUTILS\DEBUG\VC140.PDB" /Gd /TC C:\HADOOP_SRC\HADOOP-2.4.0-SRC\HADOOP-COMMON-PROJECT\HADOOP-COMMON\SRC\MAIN\WINUTILS\CHOWN.C
^C:\HADOOP_SRC\HADOOP-2.4.0-SRC\HADOOP-COMMON-PROJECT\HADOOP-COMMON\SRC\MAIN\WINUTILS\GROUPS.C
/c /ZI /nologo /W4 /WX- /Od /D WIN32 /D _DEBUG /D _CONSOLE /D _UNICODE /D UNICODE /Gm /EHsc /RTC1 /MDd /GS /fp:precise /Zc:wchar_t /Zc:forScope /Zc:inline /Fo"..\..\..\TARGET\WINUTILS\DEBUG\\" /Fd"..\..\..\TARGET\WINUTILS\DEBUG\VC140.PDB" /Gd /TC C:\HADOOP_SRC\HADOOP-2.4.0-SRC\HADOOP-COMMON-PROJECT\HADOOP-COMMON\SRC\MAIN\WINUTILS\GROUPS.C
^C:\HADOOP_SRC\HADOOP-2.4.0-SRC\HADOOP-COMMON-PROJECT\HADOOP-COMMON\SRC\MAIN\WINUTILS\HARDLINK.C
/c /ZI /nologo /W4 /WX- /Od /D WIN32 /D _DEBUG /D _CONSOLE /D _UNICODE /D UNICODE /Gm /EHsc /RTC1 /MDd /GS /fp:precise /Zc:wchar_t /Zc:forScope /Zc:inline /Fo"..\..\..\TARGET\WINUTILS\DEBUG\\" /Fd"..\..\..\TARGET\WINUTILS\DEBUG\VC140.PDB" /Gd /TC C:\HADOOP_SRC\HADOOP-2.4.0-SRC\HADOOP-COMMON-PROJECT\HADOOP-COMMON\SRC\MAIN\WINUTILS\HARDLINK.C
^C:\HADOOP_SRC\HADOOP-2.4.0-SRC\HADOOP-COMMON-PROJECT\HADOOP-COMMON\SRC\MAIN\WINUTILS\TASK.C
/c /ZI /nologo /W4 /WX- /Od /D WIN32 /D _DEBUG /D _CONSOLE /D _UNICODE /D UNICODE /Gm /EHsc /RTC1 /MDd /GS /fp:precise /Zc:wchar_t /Zc:forScope /Zc:inline /Fo"..\..\..\TARGET\WINUTILS\DEBUG\\" /Fd"..\..\..\TARGET\WINUTILS\DEBUG\VC140.PDB" /Gd /TC C:\HADOOP_SRC\HADOOP-2.4.0-SRC\HADOOP-COMMON-PROJECT\HADOOP-COMMON\SRC\MAIN\WINUTILS\TASK.C
^C:\HADOOP_SRC\HADOOP-2.4.0-SRC\HADOOP-COMMON-PROJECT\HADOOP-COMMON\SRC\MAIN\WINUTILS\LS.C
/c /ZI /nologo /W4 /WX- /Od /D WIN32 /D _DEBUG /D _CONSOLE /D _UNICODE /D UNICODE /Gm /EHsc /RTC1 /MDd /GS /fp:precise /Zc:wchar_t /Zc:forScope /Zc:inline /Fo"..\..\..\TARGET\WINUTILS\DEBUG\\" /Fd"..\..\..\TARGET\WINUTILS\DEBUG\VC140.PDB" /Gd /TC C:\HADOOP_SRC\HADOOP-2.4.0-SRC\HADOOP-COMMON-PROJECT\HADOOP-COMMON\SRC\MAIN\WINUTILS\LS.C
^C:\HADOOP_SRC\HADOOP-2.4.0-SRC\HADOOP-COMMON-PROJECT\HADOOP-COMMON\SRC\MAIN\WINUTILS\MAIN.C
/c /ZI /nologo /W4 /WX- /Od /D WIN32 /D _DEBUG /D _CONSOLE /D _UNICODE /D UNICODE /Gm /EHsc /RTC1 /MDd /GS /fp:precise /Zc:wchar_t /Zc:forScope /Zc:inline /Fo"..\..\..\TARGET\WINUTILS\DEBUG\\" /Fd"..\..\..\TARGET\WINUTILS\DEBUG\VC140.PDB" /Gd /TC C:\HADOOP_SRC\HADOOP-2.4.0-SRC\HADOOP-COMMON-PROJECT\HADOOP-COMMON\SRC\MAIN\WINUTILS\MAIN.C
