{
  "entityDetails": {
    "entityName": "cdr_mo",
    "entityType": "snapshot",
    "dataFormat": "parquet",
    "sourceType": "filesystem",
    "extractionType": "batch",
    "fileSystem": "hdfs",
    "pathUrl": "/s1/data/seq/cdr_mo",
    "partitionDetails": {
      "partitionColumn": [
        "pxn_yr",
        "pxn_mo",
        "pxn_dy"
      ],
      "partitionType": "daily",
      "partitionFormat": [
        "yyyy",
        "M",
        "d"
      ],
      "numberOfPartitions": 1
    },
    "primaryColumns": [
      "aDirectionNumber"
    ]
  },
  "targetSchema": [
    {
      "columnName": "transactionYear",
      "dataType": "string"
    },
    {
      "columnName": "transactionMonth",
      "dataType": "string"
    },
    {
      "columnName": "transactionDay",
      "dataType": "string"
    },
    {
      "columnName": "transactionHour",
      "dataType": "string"
    },
    {
      "columnName": "aFirstBsc",
      "dataType": "integer"
    },
    {
      "columnName": "aBsc",
      "dataType": "integer"
    },
    {
      "columnName": "aFirstRnc",
      "dataType": "integer"
    },
    {
      "columnName": "aRnc",
      "dataType": "integer"
    },
    {
      "columnName": "aFirstLac",
      "dataType": "integer"
    },
    {
      "columnName": "aLac",
      "dataType": "integer"
    },
    {
      "columnName": "aFirstCell",
      "dataType": "integer"
    },
    {
      "columnName": "aCell",
      "dataType": "integer"
    },
    {
      "columnName": "aFirstSac",
      "dataType": "integer"
    },
    {
      "columnName": "aSac",
      "dataType": "integer"
    },
    {
      "columnName": "aDirectionNumber",
      "dataType": "string"
    },
    {
      "columnName": "aFirstTchAccessInfo",
      "dataType": "string"
    },
    {
      "columnName": "aTchAccessInfo",
      "dataType": "string"
    },
    {
      "columnName": "aDataBcieOctet5aUsed",
      "dataType": "string"
    },
    {
      "columnName": "aImei",
      "dataType": "string"
    },
    {
      "columnName": "aImsi",
      "dataType": "string"
    },
    {
      "columnName": "bFirstBsc",
      "dataType": "integer"
    },
    {
      "columnName": "bBsc",
      "dataType": "integer"
    },
    {
      "columnName": "bFirstRnc",
      "dataType": "integer"
    },
    {
      "columnName": "bRnc",
      "dataType": "integer"
    },
    {
      "columnName": "bFirstLac",
      "dataType": "integer"
    },
    {
      "columnName": "bLac",
      "dataType": "integer"
    },
    {
      "columnName": "bFirstCell",
      "dataType": "integer"
    },
    {
      "columnName": "bCell",
      "dataType": "integer"
    },
    {
      "columnName": "bFirstSac",
      "dataType": "integer"
    },
    {
      "columnName": "bSac",
      "dataType": "integer"
    },
    {
      "columnName": "bAddressNumber",
      "dataType": "string"
    },
    {
      "columnName": "bDirectionNumber",
      "dataType": "string"
    },
    {
      "columnName": "bFirstTchAccessInfo",
      "dataType": "string"
    },
    {
      "columnName": "bTchAccessInfo",
      "dataType": "string"
    },
    {
      "columnName": "bDataBcieOctet5aUsed",
      "dataType": "string"
    },
    {
      "columnName": "bImei",
      "dataType": "string"
    },
    {
      "columnName": "bImsi",
      "dataType": "string"
    },
    {
      "columnName": "dxCause",
      "dataType": "string"
    },
    {
      "columnName": "totalVoiceCount",
      "dataType": "integer"
    },
    {
      "columnName": "totalVoiceDurationSec",
      "dataType": "integer"
    },
    {
      "columnName": "totalVoiceDurationMin",
      "dataType": "integer"
    },
    {
      "columnName": "usedServicesA",
      "dataType": "integer"
    },
    {
      "columnName": "usedServicesB",
      "dataType": "integer"
    },
    {
      "columnName": "priorityA",
      "dataType": "integer"
    },
    {
      "columnName": "priorityB",
      "dataType": "integer"
    },
    {
      "columnName": "answeredUnanswered",
      "dataType": "integer"
    },
    {
      "columnName": "duo",
      "dataType": "integer"
    },
    {
      "columnName": "totalVoiceDurationSecAct",
      "dataType": "integer"
    },
    {
      "columnName": "pagingTime",
      "dataType": "integer"
    },
    {
      "columnName": "alertTime",
      "dataType": "integer"
    },
    {
      "columnName": "connectTime",
      "dataType": "integer"
    },
    {
      "columnName": "disconTime",
      "dataType": "integer"
    },
    {
      "columnName": "cdrid",
      "dataType": "integer"
    },
    {
      "columnName": "etlTopicName",
      "dataType": "string"
    },
    {
      "columnName": "etlExtractionTs",
      "dataType": "timestamp"
    },
    {
      "columnName": "etlInsertionTs",
      "dataType": "timestamp"
    }
  ],
  "columnMapping": [
    {
      "sourceColumn": "transaction_year",
      "targetColumn": "transactionYear"
    },
    {
      "sourceColumn": "transaction_month",
      "targetColumn": "transactionMonth"
    },
    {
      "sourceColumn": "transaction_day",
      "targetColumn": "transactionDay"
    },
    {
      "sourceColumn": "transaction_hour",
      "targetColumn": "transactionHour"
    },
    {
      "sourceColumn": "a_first_bsc",
      "targetColumn": "aFirstBsc"
    },
    {
      "sourceColumn": "a_bsc",
      "targetColumn": "aBsc"
    },
    {
      "sourceColumn": "a_first_rnc",
      "targetColumn": "aFirstRnc"
    },
    {
      "sourceColumn": "a_rnc",
      "targetColumn": "aRnc"
    },
    {
      "sourceColumn": "a_first_lac",
      "targetColumn": "aFirstLac"
    },
    {
      "sourceColumn": "a_lac",
      "targetColumn": "aLac"
    },
    {
      "sourceColumn": "a_first_cell",
      "targetColumn": "aFirstCell"
    },
    {
      "sourceColumn": "a_cell",
      "targetColumn": "aCell"
    },
    {
      "sourceColumn": "a_first_sac",
      "targetColumn": "aFirstSac"
    },
    {
      "sourceColumn": "a_sac",
      "targetColumn": "aSac"
    },
    {
      "sourceColumn": "a_direction_number",
      "targetColumn": "aDirectionNumber"
    },
    {
      "sourceColumn": "a_first_tch_access_info",
      "targetColumn": "aFirstTchAccessInfo"
    },
    {
      "sourceColumn": "a_tch_access_info",
      "targetColumn": "aTchAccessInfo"
    },
    {
      "sourceColumn": "a_data_bcie_octet_5a_used",
      "targetColumn": "aDataBcieOctet5aUsed"
    },
    {
      "sourceColumn": "a_imei",
      "targetColumn": "aImei"
    },
    {
      "sourceColumn": "a_imsi",
      "targetColumn": "aImsi"
    },
    {
      "sourceColumn": "b_first_bsc",
      "targetColumn": "bFirstBsc"
    },
    {
      "sourceColumn": "b_bsc",
      "targetColumn": "bBsc"
    },
    {
      "sourceColumn": "b_first_rnc",
      "targetColumn": "bFirstRnc"
    },
    {
      "sourceColumn": "b_rnc",
      "targetColumn": "bRnc"
    },
    {
      "sourceColumn": "b_first_lac",
      "targetColumn": "bFirstLac"
    },
    {
      "sourceColumn": "b_lac",
      "targetColumn": "bLac"
    },
    {
      "sourceColumn": "b_first_cell",
      "targetColumn": "bFirstCell"
    },
    {
      "sourceColumn": "b_cell",
      "targetColumn": "bCell"
    },
    {
      "sourceColumn": "b_first_sac",
      "targetColumn": "bFirstSac"
    },
    {
      "sourceColumn": "b_sac",
      "targetColumn": "bSac"
    },
    {
      "sourceColumn": "b_address_number",
      "targetColumn": "bAddressNumber"
    },
    {
      "sourceColumn": "b_direction_number",
      "targetColumn": "bDirectionNumber"
    },
    {
      "sourceColumn": "b_first_tch_access_info",
      "targetColumn": "bFirstTchAccessInfo"
    },
    {
      "sourceColumn": "b_tch_access_info",
      "targetColumn": "bTchAccessInfo"
    },
    {
      "sourceColumn": "b_data_bcie_octet_5a_used",
      "targetColumn": "bDataBcieOctet5aUsed"
    },
    {
      "sourceColumn": "b_imei",
      "targetColumn": "bImei"
    },
    {
      "sourceColumn": "b_imsi",
      "targetColumn": "bImsi"
    },
    {
      "sourceColumn": "dx_cause",
      "targetColumn": "dxCause"
    },
    {
      "sourceColumn": "total_voice_count",
      "targetColumn": "totalVoiceCount"
    },
    {
      "sourceColumn": "total_voice_duration_sec",
      "targetColumn": "totalVoiceDurationSec"
    },
    {
      "sourceColumn": "total_voice_duration_min",
      "targetColumn": "totalVoiceDurationMin"
    },
    {
      "sourceColumn": "used_services_a",
      "targetColumn": "usedServicesA"
    },
    {
      "sourceColumn": "used_services_b",
      "targetColumn": "usedServicesB"
    },
    {
      "sourceColumn": "priority_a",
      "targetColumn": "priorityA"
    },
    {
      "sourceColumn": "priority_b",
      "targetColumn": "priorityB"
    },
    {
      "sourceColumn": "answered_unanswered",
      "targetColumn": "answeredUnanswered"
    },
    {
      "sourceColumn": "duo",
      "targetColumn": "duo"
    },
    {
      "sourceColumn": "total_voice_duration_sec_act",
      "targetColumn": "totalVoiceDurationSecAct"
    },
    {
      "sourceColumn": "paging_time",
      "targetColumn": "pagingTime"
    },
    {
      "sourceColumn": "alert_time",
      "targetColumn": "alertTime"
    },
    {
      "sourceColumn": "connect_time",
      "targetColumn": "connectTime"
    },
    {
      "sourceColumn": "discon_time",
      "targetColumn": "disconTime"
    },
    {
      "sourceColumn": "cdrid",
      "targetColumn": "cdrid"
    },
    {
      "sourceColumn": "etl_topic_name",
      "targetColumn": "etlTopicName"
    },
    {
      "sourceColumn": "etl_extraction_ts",
      "targetColumn": "etlExtractionTs"
    },
    {
      "sourceColumn": "etl_insertion_ts",
      "targetColumn": "etlInsertionTs"
    }
  ],
  "validationsDetails": [
    {
      "columnName": "aDirectionNumber",
      "validationFunction": "NotNullValidator"
    }
  ],
  "transformationsDetails": [
    {
      "targetColumn": "aDirectionNumber",
      "sourceColumns": [
        "aDirectionNumber"
      ],
      "transformationFunction": "TrimWhiteSpaces"
    }
  ],
  "storageDetails": [
    {
      "recordType": "invalid-records",
      "dataFormat": "parquet",
      "persistFlag": "true",
      "fileSystem": "hdfs",
      "pathUrl": "/zzx/rel/s2/data/uup/metadata/invalid-records",
      "storageHandler": "PersistHadoopFS"
    },
    {
      "recordType": "audit-records",
      "dataFormat": "parquet",
      "persistFlag": "false",
      "fileSystem": "hdfs",
      "pathUrl": "/zzx/rel/s2/data/uup/metadata/audit",
      "storageHandler": "PersistHadoopFS"
    },
    {
      "recordType": "valid-records",
      "dataFormat": "parquet",
      "fileSystem": "hdfs",
      "pathUrl": "/zzx/rel/s2/data/uup/entity_store/cdr_mo",
      "storageHandler": "PersistHadoopFS"
    }
  ]
}