{
  "entityDetails": {
    "entityName": "daily_network_sms_mo_transaction_top_location",
    "entityType": "snapshot",
    "sourceType": "filesystem",
    "dataFormat": "parquet",
    "dataFormatOption": [
      {
        "key": "mergeSchema",
        "value": "true"
      }
    ],
    "extractionType": "batch",
    "fileSystem": "hdfs",
    "pathUrl": "/s2/data/rdb/dl_access/daily_network_sms_mo_transaction_top_location",
    "partitionDetails": {
      "partitionColumn": [
        "p_date"
      ],
      "partitionType": "daily",
      "partitionFormat": [
        "yyyy-MM-dd"
      ],
      "numberOfPartitions": 1
    },
    "primaryColumns": [
      "msisdnValue"
    ]
  },
  "targetSchema": [
    {
      "columnName": "topLocationDate",
      "dataType": "timestamp"
    },
    {
      "columnName": "msisdnValue",
      "dataType": "string"
    },
    {
      "columnName": "cellGlobalID",
      "dataType": "string"
    },
    {
      "columnName": "deviceID",
      "dataType": "string"
    },
    {
      "columnName": "transactionUsageTypeCode",
      "dataType": "string"
    },
    {
      "columnName": "unitofMeasurementCode",
      "dataType": "string"
    },
    {
      "columnName": "totalUsageQuantity",
      "dataType": "double"
    },
    {
      "columnName": "sourceInsertDate",
      "dataType": "timestamp"
    },
    {
      "columnName": "sourceUpdateDate",
      "dataType": "timestamp"
    },
    {
      "columnName": "etlInsertJobName",
      "dataType": "string"
    },
    {
      "columnName": "etlInsertJobBatchID",
      "dataType": "string"
    },
    {
      "columnName": "etlInsertJobDatetime",
      "dataType": "timestamp"
    },
    {
      "columnName": "etlUpdateJobName",
      "dataType": "string"
    },
    {
      "columnName": "etlUpdateJobBatchID",
      "dataType": "string"
    },
    {
      "columnName": "etlUpdateJobDatetime",
      "dataType": "timestamp"
    }
  ],
  "columnMapping": [
    {
      "sourceColumn": "Top_Location_Date",
      "targetColumn": "topLocationDate"
    },
    {
      "sourceColumn": "MSISDN_Value",
      "targetColumn": "msisdnValue"
    },
    {
      "sourceColumn": "Cell_Global_ID",
      "targetColumn": "cellGlobalID"
    },
    {
      "sourceColumn": "Device_ID",
      "targetColumn": "deviceID"
    },
    {
      "sourceColumn": "Transaction_Usage_Type_Code",
      "targetColumn": "transactionUsageTypeCode"
    },
    {
      "sourceColumn": "Unit_of_Measurement_Code",
      "targetColumn": "unitofMeasurementCode"
    },
    {
      "sourceColumn": "Total_Usage_Quantity",
      "targetColumn": "totalUsageQuantity"
    },
    {
      "sourceColumn": "Source_Insert_Date",
      "targetColumn": "sourceInsertDate"
    },
    {
      "sourceColumn": "Source_Update_Date",
      "targetColumn": "sourceUpdateDate"
    },
    {
      "sourceColumn": "ETL_Insert_Job_Name",
      "targetColumn": "etlInsertJobName"
    },
    {
      "sourceColumn": "ETL_Insert_Job_Batch_ID",
      "targetColumn": "etlInsertJobBatchID"
    },
    {
      "sourceColumn": "ETL_Insert_Job_Datetime",
      "targetColumn": "etlInsertJobDatetime"
    },
    {
      "sourceColumn": "ETL_Update_Job_Name",
      "targetColumn": "etlUpdateJobName"
    },
    {
      "sourceColumn": "ETL_Update_Job_Batch_ID",
      "targetColumn": "etlUpdateJobBatchID"
    },
    {
      "sourceColumn": "ETL_Update_Job_Datetime",
      "targetColumn": "etlUpdateJobDatetime"
    }
  ],
  "validationsDetails": [
    {
      "columnName": "msisdnValue",
      "validationFunction": "NotNullValidator"
    }
  ],
  "transformationsDetails": [
  ],
  "storageDetails": [
    {
      "recordType": "invalid-records",
      "dataFormat": "parquet",
      "persistFlag": "true",
      "fileSystem": "hdfs",
      "pathUrl": "/zzx/rel/s2/data/uup/metadata/invalid-records",
      "storageHandler": "PersistHadoopFS"
    },
    {
      "recordType": "audit-records",
      "dataFormat": "parquet",
      "persistFlag": "false",
      "fileSystem": "hdfs",
      "pathUrl": "/zzx/rel/s2/data/uup/metadata/audit",
      "storageHandler": "PersistHadoopFS"
    },
    {
      "recordType": "valid-records",
      "dataFormat": "parquet",
      "fileSystem": "hdfs",
      "pathUrl": "/zzx/rel/s2/data/uup/entity_store/daily_network_sms_mo_transaction_top_location",
      "storageHandler": "PersistHadoopFS"
    }
  ]
}