{
  "entityDetails": {
    "entityName": "financial_account_invoice_staging",
    "entityType": "snapshot",
    "sourceType": "filesystem",
    "dataFormat": "parquet",
    "dataFormatOption": [
      {
        "key": "mergeSchema",
        "value": "true"
      }
    ],
    "extractionType": "batch",
    "fileSystem": "hdfs",
    "pathUrl": "/s2/data/rdb/dl_access/financial_account_invoice_staging",
    "partitionDetails": {
      "partitionColumn": [
        "p_date"
      ],
      "partitionType": "monthly",
      "partitionFormat": [
        "yyyy-MM-dd"
      ],
      "numberOfPartitions": 1
    },
    "primaryColumns": [
      "invoiceId"
    ]
  },
  "targetSchema": [
    {
      "columnName": "invoiceId",
      "dataType": "string"
    },
    {
      "columnName": "currencyCode",
      "dataType": "string"
    },
    {
      "columnName": "billingArrangementId",
      "dataType": "string"
    },
    {
      "columnName": "financialAccountId",
      "dataType": "string"
    },
    {
      "columnName": "customerId",
      "dataType": "string"
    },
    {
      "columnName": "paymentMethodCode",
      "dataType": "string"
    },
    {
      "columnName": "billingCycleInstanceCode",
      "dataType": "string"
    },
    {
      "columnName": "serviceTypeCode",
      "dataType": "string"
    },
    {
      "columnName": "paymentChannelId",
      "dataType": "string"
    },
    {
      "columnName": "documentProductionTypeCode",
      "dataType": "string"
    },
    {
      "columnName": "documentStatusCode",
      "dataType": "string"
    },
    {
      "columnName": "documentTypeCode",
      "dataType": "string"
    },
    {
      "columnName": "dueAmountHandlingCode",
      "dataType": "string"
    },
    {
      "columnName": "invoiceCategoryTypeCode",
      "dataType": "string"
    },
    {
      "columnName": "itemizedTaxFlagIndicator",
      "dataType": "string"
    },
    {
      "columnName": "documentFormatIndicator",
      "dataType": "string"
    },
    {
      "columnName": "documentProducedIndicator",
      "dataType": "string"
    },
    {
      "columnName": "legalInvoiceNumberValue",
      "dataType": "string"
    },
    {
      "columnName": "periodCoverageStartDate",
      "dataType": "timestamp"
    },
    {
      "columnName": "periodCoverageEndDate",
      "dataType": "timestamp"
    },
    {
      "columnName": "dueDate",
      "dataType": "timestamp"
    },
    {
      "columnName": "statementDate",
      "dataType": "timestamp"
    },
    {
      "columnName": "cycleRunDate",
      "dataType": "timestamp"
    },
    {
      "columnName": "invoiceTotalAmount",
      "dataType": "double"
    },
    {
      "columnName": "financialActivitiesAmount",
      "dataType": "double"
    },
    {
      "columnName": "preparedAccountReceivableBalanceAmount",
      "dataType": "double"
    },
    {
      "columnName": "invoiceNetAmount",
      "dataType": "double"
    },
    {
      "columnName": "totalDueAmount",
      "dataType": "double"
    },
    {
      "columnName": "sourceInsertDate",
      "dataType": "string"
    },
    {
      "columnName": "sourceUpdateDate",
      "dataType": "string"
    },
    {
      "columnName": "billNumber",
      "dataType": "string"
    },
    {
      "columnName": "previousBalanceAmount",
      "dataType": "double"
    }
  ],
  "columnMapping": [
    {
      "sourceColumn": "invoice_id",
      "targetColumn": "invoiceId"
    },
    {
      "sourceColumn": "currency_code",
      "targetColumn": "currencyCode"
    },
    {
      "sourceColumn": "billing_arrangement_id",
      "targetColumn": "billingArrangementId"
    },
    {
      "sourceColumn": "financial_account_id",
      "targetColumn": "financialAccountId"
    },
    {
      "sourceColumn": "customer_id",
      "targetColumn": "customerId"
    },
    {
      "sourceColumn": "payment_method_code",
      "targetColumn": "paymentMethodCode"
    },
    {
      "sourceColumn": "billing_cycle_instance_code",
      "targetColumn": "billingCycleInstanceCode"
    },
    {
      "sourceColumn": "service_type_code",
      "targetColumn": "serviceTypeCode"
    },
    {
      "sourceColumn": "payment_channel_id",
      "targetColumn": "paymentChannelId"
    },
    {
      "sourceColumn": "document_production_type_code",
      "targetColumn": "documentProductionTypeCode"
    },
    {
      "sourceColumn": "document_status_code",
      "targetColumn": "documentStatusCode"
    },
    {
      "sourceColumn": "document_type_code",
      "targetColumn": "documentTypeCode"
    },
    {
      "sourceColumn": "due_amount_handling_code",
      "targetColumn": "dueAmountHandlingCode"
    },
    {
      "sourceColumn": "invoice_category_type_code",
      "targetColumn": "invoiceCategoryTypeCode"
    },
    {
      "sourceColumn": "itemized_tax_flag_indicator",
      "targetColumn": "itemizedTaxFlagIndicator"
    },
    {
      "sourceColumn": "document_format_indicator",
      "targetColumn": "documentFormatIndicator"
    },
    {
      "sourceColumn": "document_produced_indicator",
      "targetColumn": "documentProducedIndicator"
    },
    {
      "sourceColumn": "legal_invoice_number_value",
      "targetColumn": "legalInvoiceNumberValue"
    },
    {
      "sourceColumn": "period_coverage_start_date",
      "targetColumn": "periodCoverageStartDate"
    },
    {
      "sourceColumn": "period_coverage_end_date",
      "targetColumn": "periodCoverageEndDate"
    },
    {
      "sourceColumn": "due_date",
      "targetColumn": "dueDate"
    },
    {
      "sourceColumn": "statement_date",
      "targetColumn": "statementDate"
    },
    {
      "sourceColumn": "cycle_run_date",
      "targetColumn": "cycleRunDate"
    },
    {
      "sourceColumn": "invoice_total_amount",
      "targetColumn": "invoiceTotalAmount"
    },
    {
      "sourceColumn": "financial_activities_amount",
      "targetColumn": "financialActivitiesAmount"
    },
    {
      "sourceColumn": "prepared_account_receivable_balance_amount",
      "targetColumn": "preparedAccountReceivableBalanceAmount"
    },
    {
      "sourceColumn": "invoice_net_amount",
      "targetColumn": "invoiceNetAmount"
    },
    {
      "sourceColumn": "total_due_amount",
      "targetColumn": "totalDueAmount"
    },
    {
      "sourceColumn": "source_insert_date",
      "targetColumn": "sourceInsertDate"
    },
    {
      "sourceColumn": "source_update_date",
      "targetColumn": "sourceUpdateDate"
    },
    {
      "sourceColumn": "bill_number",
      "targetColumn": "billNumber"
    },
    {
      "sourceColumn": "previous_balance_amount",
      "targetColumn": "previousBalanceAmount"
    }
  ],
  "validationsDetails": [
    {
      "columnName": "invoiceId",
      "validationFunction": "NotNullValidator"
    }
  ],
  "transformationsDetails": [],
  "storageDetails": [
    {
      "recordType": "invalid-records",
      "dataFormat": "parquet",
      "persistFlag": "true",
      "fileSystem": "hdfs",
      "pathUrl": "/zzx/rel/s2/data/uup/metadata/invalid-records",
      "storageHandler": "PersistHadoopFS"
    },
    {
      "recordType": "audit-records",
      "dataFormat": "parquet",
      "persistFlag": "false",
      "fileSystem": "hdfs",
      "pathUrl": "/zzx/rel/s2/data/uup/metadata/audit",
      "storageHandler": "PersistHadoopFS"
    },
    {
      "recordType": "valid-records",
      "dataFormat": "parquet",
      "fileSystem": "hdfs",
      "pathUrl": "/zzx/rel/s2/data/uup/entity_store/financial_account_invoice_staging",
      "storageHandler": "PersistHadoopFS"
    }
  ]
}