{
  "entityDetails": {
    "entityName": "subscriber_assigned_billing_offer",
    "entityType": "snapshot",
    "sourceType": "filesystem",
    "dataFormat": "parquet",
    "dataFormatOption": [
      {
        "key": "mergeSchema",
        "value": "true"
      }
    ],
    "extractionType": "batch",
    "fileSystem": "hdfs",
    "pathUrl": "/s2/data/rdb/dl_access/subscriber_assigned_billing_offer",
    "partitionDetails": {
      "partitionColumn": [
        "p_date"
      ],
      "partitionType": "daily",
      "partitionFormat": [
        "yyyy-MM-dd"
      ],
      "numberOfPartitions": 1
    },
    "primaryColumns": [
      "subscriberAssignedBillingOfferId"
    ]
  },
  "targetSchema": [
    {
      "columnName": "subscriberAssignedBillingOfferId",
      "dataType": "string"
    },
    {
      "columnName": "subscriberAssignedBillingOfferStatusCode",
      "dataType": "string"
    },
    {
      "columnName": "commitmentDurationCount",
      "dataType": "string"
    },
    {
      "columnName": "commitmentStartDate",
      "dataType": "timestamp"
    },
    {
      "columnName": "subscriberBillingOfferLevelCode",
      "dataType": "string"
    },
    {
      "columnName": "orderActionId",
      "dataType": "string"
    },
    {
      "columnName": "billingOfferId",
      "dataType": "string"
    },
    {
      "columnName": "billingOfferDescription",
      "dataType": "string"
    },
    {
      "columnName": "provisioningDate",
      "dataType": "timestamp"
    },
    {
      "columnName": "subscriberId",
      "dataType": "string"
    },
    {
      "columnName": "customerId",
      "dataType": "string"
    },
    {
      "columnName": "subscriberMainOfferIndicator",
      "dataType": "string"
    },
    {
      "columnName": "subscriberAssignedBillingOfferStartDate",
      "dataType": "string"
    },
    {
      "columnName": "subscriberAssignedBillingOfferEndDate",
      "dataType": "string"
    },
    {
      "columnName": "parentSubscriberAssignedBillingOfferId",
      "dataType": "string"
    },
    {
      "columnName": "sourceInsertDate",
      "dataType": "timestamp"
    },
    {
      "columnName": "sourceUpdateDate",
      "dataType": "timestamp"
    }
  ],
  "columnMapping": [
    {
      "sourceColumn": "subscriber_assigned_billing_offer_id",
      "targetColumn": "subscriberAssignedBillingOfferId"
    },
    {
      "sourceColumn": "subscriber_assigned_billing_offer_status_code",
      "targetColumn": "subscriberAssignedBillingOfferStatusCode"
    },
    {
      "sourceColumn": "commitment_duration_count",
      "targetColumn": "commitmentDurationCount"
    },
    {
      "sourceColumn": "commitment_start_date",
      "targetColumn": "commitmentStartDate"
    },
    {
      "sourceColumn": "subscriber_billing_offer_level_code",
      "targetColumn": "subscriberBillingOfferLevelCode"
    },
    {
      "sourceColumn": "order_action_id",
      "targetColumn": "orderActionId"
    },
    {
      "sourceColumn": "billing_offer_id",
      "targetColumn": "billingOfferId"
    },
    {
      "sourceColumn": "billing_offer_description",
      "targetColumn": "billingOfferDescription"
    },
    {
      "sourceColumn": "provisioning_date",
      "targetColumn": "provisioningDate"
    },
    {
      "sourceColumn": "subscriber_id",
      "targetColumn": "subscriberId"
    },
    {
      "sourceColumn": "customer_id",
      "targetColumn": "customerId"
    },
    {
      "sourceColumn": "subscriber_main_offer_indicator",
      "targetColumn": "subscriberMainOfferIndicator"
    },
    {
      "sourceColumn": "subscriber_assigned_billing_offer_start_date",
      "targetColumn": "subscriberAssignedBillingOfferStartDate"
    },
    {
      "sourceColumn": "subscriber_assigned_billing_offer_end_date",
      "targetColumn": "subscriberAssignedBillingOfferEndDate"
    },
    {
      "sourceColumn": "parent_subscriber_assigned_billing_offer_id",
      "targetColumn": "parentSubscriberAssignedBillingOfferId"
    },
    {
      "sourceColumn": "source_insert_date",
      "targetColumn": "sourceInsertDate"
    },
    {
      "sourceColumn": "source_update_date",
      "targetColumn": "sourceUpdateDate"
    }
  ],
  "validationsDetails": [
    {
      "columnName": "subscriberAssignedBillingOfferId",
      "validationFunction": "NotNullValidator"
    }
  ],
  "transformationsDetails": [],
  "storageDetails": [
    {
      "recordType": "invalid-records",
      "dataFormat": "parquet",
      "persistFlag": "true",
      "fileSystem": "hdfs",
      "pathUrl": "/zzx/rel/s2/data/uup/metadata/invalid-records",
      "storageHandler": "PersistHadoopFS"
    },
    {
      "recordType": "audit-records",
      "dataFormat": "parquet",
      "persistFlag": "false",
      "fileSystem": "hdfs",
      "pathUrl": "/zzx/rel/s2/data/uup/metadata/audit",
      "storageHandler": "PersistHadoopFS"
    },
    {
      "recordType": "valid-records",
      "dataFormat": "parquet",
      "fileSystem": "hdfs",
      "pathUrl": "/zzx/rel/s2/data/uup/entity_store/subscriber_assigned_billing_offer",
      "storageHandler": "PersistHadoopFS"
    }
  ]
}