{
  "entityDetails": {
    "entityName": "financial_account",
    "entityType": "snapshot",
    "sourceType": "filesystem",
    "dataFormat": "parquet",
    "dataFormatOption": [
      {
        "key": "mergeSchema",
        "value": "true"
      }
    ],
    "extractionType": "batch",
    "fileSystem": "hdfs",
    "pathUrl": "/s2/data/rdb/dl_access/financial_account",
    "partitionDetails": {
      "partitionColumn": [
        "p_date"
      ],
      "partitionType": "daily",
      "partitionFormat": [
        "yyyy-MM-dd"
      ],
      "numberOfPartitions": 1
    },
    "primaryColumns": [
      "financialAccountId"
    ]
  },
  "targetSchema": [
    {
      "columnName": "financialAccountId",
      "dataType": "string"
    },
    {
      "columnName": "customerId",
      "dataType": "string"
    },
    {
      "columnName": "financialAccountStatusCode",
      "dataType": "string"
    },
    {
      "columnName": "billingDeliveryModeCode",
      "dataType": "string"
    },
    {
      "columnName": "customerFacingUnitTypeCode",
      "dataType": "string"
    },
    {
      "columnName": "customerFacingUnitSubTypeCode",
      "dataType": "string"
    },
    {
      "columnName": "primarySubscriberId",
      "dataType": "string"
    },
    {
      "columnName": "serviceTypeCode",
      "dataType": "string"
    },
    {
      "columnName": "financialAccountActivationDate",
      "dataType": "timestamp"
    },
    {
      "columnName": "financialAccountChurnDate",
      "dataType": "timestamp"
    },
    {
      "columnName": "collectionTypeCode",
      "dataType": "string"
    },
    {
      "columnName": "suspensionTypeCode",
      "dataType": "string"
    },
    {
      "columnName": "writeOffCode",
      "dataType": "string"
    },
    {
      "columnName": "noSinglePaymentIndicator",
      "dataType": "string"
    },
    {
      "columnName": "creditLimitAmount",
      "dataType": "decimal"
    },
    {
      "columnName": "accountReceivableBalanceAmount",
      "dataType": "decimal"
    },
    {
      "columnName": "accountReceivablePaymentDueDate",
      "dataType": "timestamp"
    },
    {
      "columnName": "sourceInsertDate",
      "dataType": "timestamp"
    },
    {
      "columnName": "sourceUpdateDate",
      "dataType": "timestamp"
    },
    {
      "columnName": "etlInsertJobName",
      "dataType": "string"
    },
    {
      "columnName": "etlInsertJobBatchId",
      "dataType": "string"
    },
    {
      "columnName": "etlInsertJobDatetime",
      "dataType": "timestamp"
    },
    {
      "columnName": "etlUpdateJobName",
      "dataType": "string"
    },
    {
      "columnName": "etlUpdateJobBatchId",
      "dataType": "string"
    },
    {
      "columnName": "etlUpdateJobDatetime",
      "dataType": "timestamp"
    },
    {
      "columnName": "contactId",
      "dataType": "string"
    },
    {
      "columnName": "addressId",
      "dataType": "string"
    },
    {
      "columnName": "corporateDetailsId",
      "dataType": "string"
    },
    {
      "columnName": "billingCycleCode",
      "dataType": "string"
    },
    {
      "columnName": "corporationName",
      "dataType": "string"
    },
    {
      "columnName": "legalEntityCode",
      "dataType": "string"
    },
    {
      "columnName": "financialAccountName",
      "dataType": "string"
    }
  ],
  "columnMapping": [
    {
      "sourceColumn": "financial_account_id",
      "targetColumn": "financialAccountId"
    },
    {
      "sourceColumn": "customer_id",
      "targetColumn": "customerId"
    },
    {
      "sourceColumn": "financial_account_status_code",
      "targetColumn": "financialAccountStatusCode"
    },
    {
      "sourceColumn": "billing_delivery_mode_code",
      "targetColumn": "billingDeliveryModeCode"
    },
    {
      "sourceColumn": "customer_facing_unit_type_code",
      "targetColumn": "customerFacingUnitTypeCode"
    },
    {
      "sourceColumn": "customer_facing_unit_sub_type_code",
      "targetColumn": "customerFacingUnitSubTypeCode"
    },
    {
      "sourceColumn": "primary_subscriber_id",
      "targetColumn": "primarySubscriberId"
    },
    {
      "sourceColumn": "service_type_code",
      "targetColumn": "serviceTypeCode"
    },
    {
      "sourceColumn": "financial_account_activation_date",
      "targetColumn": "financialAccountActivationDate"
    },
    {
      "sourceColumn": "financial_account_churn_date",
      "targetColumn": "financialAccountChurnDate"
    },
    {
      "sourceColumn": "collection_type_code",
      "targetColumn": "collectionTypeCode"
    },
    {
      "sourceColumn": "suspension_type_code",
      "targetColumn": "suspensionTypeCode"
    },
    {
      "sourceColumn": "write_off_code",
      "targetColumn": "writeOffCode"
    },
    {
      "sourceColumn": "no_single_payment_indicator",
      "targetColumn": "noSinglePaymentIndicator"
    },
    {
      "sourceColumn": "credit_limit_amount",
      "targetColumn": "creditLimitAmount"
    },
    {
      "sourceColumn": "account_receivable_balance_amount",
      "targetColumn": "accountReceivableBalanceAmount"
    },
    {
      "sourceColumn": "account_receivable_payment_due_date",
      "targetColumn": "accountReceivablePaymentDueDate"
    },
    {
      "sourceColumn": "source_insert_date",
      "targetColumn": "sourceInsertDate"
    },
    {
      "sourceColumn": "source_update_date",
      "targetColumn": "sourceUpdateDate"
    },
    {
      "sourceColumn": "etl_insert_job_name",
      "targetColumn": "etlInsertJobName"
    },
    {
      "sourceColumn": "etl_insert_job_batch_id",
      "targetColumn": "etlInsertJobBatchId"
    },
    {
      "sourceColumn": "etl_insert_job_datetime",
      "targetColumn": "etlInsertJobDatetime"
    },
    {
      "sourceColumn": "etl_update_job_name",
      "targetColumn": "etlUpdateJobName"
    },
    {
      "sourceColumn": "etl_update_job_batch_id",
      "targetColumn": "etlUpdateJobBatchId"
    },
    {
      "sourceColumn": "etl_update_job_datetime",
      "targetColumn": "etlUpdateJobDatetime"
    },
    {
      "sourceColumn": "contact_id",
      "targetColumn": "contactId"
    },
    {
      "sourceColumn": "address_id",
      "targetColumn": "addressId"
    },
    {
      "sourceColumn": "corporate_details_id",
      "targetColumn": "corporateDetailsId"
    },
    {
      "sourceColumn": "billing_cycle_code",
      "targetColumn": "billingCycleCode"
    },
    {
      "sourceColumn": "corporation_name",
      "targetColumn": "corporationName"
    },
    {
      "sourceColumn": "legal_entity_code",
      "targetColumn": "legalEntityCode"
    },
    {
      "sourceColumn": "financial_account_name",
      "targetColumn": "financialAccountName"
    }
  ],
  "validationsDetails": [
    {
      "columnName": "financialAccountId",
      "validationFunction": "NotNullValidator"
    }
  ],
  "transformationsDetails": [],
  "storageDetails": [
    {
      "recordType": "invalid-records",
      "dataFormat": "parquet",
      "persistFlag": "true",
      "fileSystem": "hdfs",
      "pathUrl": "/zzx/rel/s2/data/uup/metadata/invalid-records",
      "storageHandler": "PersistHadoopFS"
    },
    {
      "recordType": "audit-records",
      "dataFormat": "parquet",
      "persistFlag": "false",
      "fileSystem": "hdfs",
      "pathUrl": "/zzx/rel/s2/data/uup/metadata/audit",
      "storageHandler": "PersistHadoopFS"
    },
    {
      "recordType": "valid-records",
      "dataFormat": "parquet",
      "fileSystem": "hdfs",
      "pathUrl": "/zzx/rel/s2/data/uup/entity_store/financial_account",
      "storageHandler": "PersistHadoopFS"
    }
  ]
}