{
  "entityDetails": {
    "entityName": "mutables_usageprepaidevent",
    "entityType": "event",
    "sourceType": "filesystem",
    "dataFormat": "parquet",
    "dataFormatOption": [
      {
        "key": "mergeSchema",
        "value": "true"
      }
    ],
    "extractionType": "batch",
    "fileSystem": "hdfs",
    "pathUrl": "/opt_adh/data/com_globe_dh_shared_events_usageprepaid_usageprepaidevent",
    "partitionDetails": {
      "partitionColumn": [
        "p_date"
      ],
      "partitionType": "daily",
      "partitionFormat": [
        "yyyy-MM-dd"
      ],
      "numberOfPartitions": 1
    },
    "primaryColumns": [
      "subscriberKey"
    ]
  },
  "targetSchema": [
    {
      "columnName": "eventId",
      "dataType": "long"
    },
    {
      "columnName": "originalEventId",
      "dataType": "long"
    },
    {
      "columnName": "eventStartTime",
      "dataType": "long"
    },
    {
      "columnName": "subscriberKey",
      "dataType": "long"
    },
    {
      "columnName": "serviceTypeKey",
      "dataType": "string"
    },
    {
      "columnName": "cellKey",
      "dataType": "string"
    },
    {
      "columnName": "lastCallingCellKey",
      "dataType": "string"
    },
    {
      "columnName": "eventDirectionInd",
      "dataType": "string"
    },
    {
      "columnName": "destinationType",
      "dataType": "string"
    },
    {
      "columnName": "customerKey",
      "dataType": "long"
    },
    {
      "columnName": "callingImei",
      "dataType": "string"
    },
    {
      "columnName": "imsi",
      "dataType": "string"
    },
    {
      "columnName": "roamingFlag",
      "dataType": "string"
    },
    {
      "columnName": "billingCycleKey",
      "dataType": "long"
    },
    {
      "columnName": "billingOfferKey",
      "dataType": "long"
    },
    {
      "columnName": "totalDataVolume",
      "dataType": "double"
    },
    {
      "columnName": "actualDuration",
      "dataType": "double"
    },
    {
      "columnName": "roundedUnit",
      "dataType": "double"
    },
    {
      "columnName": "chargeAmount",
      "dataType": "double"
    },
    {
      "columnName": "originalCurrencyChargeAmount",
      "dataType": "double"
    },
    {
      "columnName": "roamingTaxAmount",
      "dataType": "double"
    },
    {
      "columnName": "freeAllowanceAmount",
      "dataType": "double"
    },
    {
      "columnName": "discountAmount",
      "dataType": "double"
    },
    {
      "columnName": "additionalChargeAmount",
      "dataType": "double"
    },
    {
      "columnName": "originalChargeAmount",
      "dataType": "double"
    },
    {
      "columnName": "postAllowanceChargeAmount",
      "dataType": "double"
    },
    {
      "columnName": "monetaryChargeAmount",
      "dataType": "double"
    },
    {
      "columnName": "discountedChargeAmount",
      "dataType": "double"
    },
    {
      "columnName": "subscriberTypeKey",
      "dataType": "string"
    },
    {
      "columnName": "recordingDeviceId",
      "dataType": "string"
    },
    {
      "columnName": "callTypeKey",
      "dataType": "string"
    },
    {
      "columnName": "terminationReason",
      "dataType": "string"
    },
    {
      "columnName": "cycleMonth",
      "dataType": "long"
    },
    {
      "columnName": "cycleYear",
      "dataType": "long"
    },
    {
      "columnName": "callingNumber",
      "dataType": "string"
    },
    {
      "columnName": "calledNumber",
      "dataType": "string"
    },
    {
      "columnName": "fnFind",
      "dataType": "string"
    },
    {
      "columnName": "customUserGroupInd",
      "dataType": "string"
    },
    {
      "columnName": "rerateTypeFlag",
      "dataType": "string"
    },
    {
      "columnName": "chargeCodeKey",
      "dataType": "string"
    },
    {
      "columnName": "specialNumberGroup",
      "dataType": "string"
    },
    {
      "columnName": "specialNumberKey",
      "dataType": "string"
    },
    {
      "columnName": "accessCode",
      "dataType": "string"
    },
    {
      "columnName": "calledZone",
      "dataType": "string"
    },
    {
      "columnName": "allowanceCategory",
      "dataType": "string"
    },
    {
      "columnName": "terminatingCountryKey",
      "dataType": "string"
    },
    {
      "columnName": "calledRegionCode",
      "dataType": "string"
    },
    {
      "columnName": "freeDuration",
      "dataType": "long"
    },
    {
      "columnName": "locationAreaCode",
      "dataType": "string"
    },
    {
      "columnName": "downstreamDataVolume",
      "dataType": "long"
    },
    {
      "columnName": "upstreamDataVolume",
      "dataType": "long"
    },
    {
      "columnName": "cityName",
      "dataType": "string"
    },
    {
      "columnName": "provinceName",
      "dataType": "string"
    },
    {
      "columnName": "tariffClass",
      "dataType": "string"
    },
    {
      "columnName": "tariffGroup",
      "dataType": "string"
    },
    {
      "columnName": "financialAccountKey",
      "dataType": "long"
    },
    {
      "columnName": "payChannelKey",
      "dataType": "long"
    },
    {
      "columnName": "roamingRoundedVolume",
      "dataType": "long"
    },
    {
      "columnName": "billingCycleInstanceKey",
      "dataType": "long"
    },
    {
      "columnName": "productType",
      "dataType": "string"
    },
    {
      "columnName": "vasCode",
      "dataType": "string"
    },
    {
      "columnName": "accessPointName",
      "dataType": "string"
    },
    {
      "columnName": "calledCountryCode",
      "dataType": "string"
    },
    {
      "columnName": "calledImei",
      "dataType": "string"
    },
    {
      "columnName": "originatingCountryKey",
      "dataType": "string"
    },
    {
      "columnName": "eventTypeName",
      "dataType": "string"
    },
    {
      "columnName": "roamingRoundedDuration",
      "dataType": "long"
    },
    {
      "columnName": "applicationId",
      "dataType": "string"
    },
    {
      "columnName": "freeUnits",
      "dataType": "long"
    },
    {
      "columnName": "freeOccurrence",
      "dataType": "long"
    },
    {
      "columnName": "serviceFilter",
      "dataType": "string"
    },
    {
      "columnName": "tadigCode",
      "dataType": "string"
    },
    {
      "columnName": "callSubtypeCode",
      "dataType": "string"
    },
    {
      "columnName": "urlGroup",
      "dataType": "string"
    },
    {
      "columnName": "accessPointGroupCode",
      "dataType": "string"
    },
    {
      "columnName": "unitOfMeasureInd",
      "dataType": "string"
    },
    {
      "columnName": "billingArrangementKey",
      "dataType": "long"
    },
    {
      "columnName": "eventState",
      "dataType": "string"
    },
    {
      "columnName": "targetCustomerKey",
      "dataType": "long"
    },
    {
      "columnName": "amFileId",
      "dataType": "long"
    },
    {
      "columnName": "lastCalledCellId",
      "dataType": "string"
    },
    {
      "columnName": "calledNumberCellKey",
      "dataType": "string"
    },
    {
      "columnName": "calledNumberLocationArea",
      "dataType": "string"
    },
    {
      "columnName": "contentType",
      "dataType": "long"
    },
    {
      "columnName": "customerSubTypeKey",
      "dataType": "string"
    },
    {
      "columnName": "customerTypeKey",
      "dataType": "string"
    },
    {
      "columnName": "dataCappingType",
      "dataType": "string"
    },
    {
      "columnName": "fileSequence",
      "dataType": "long"
    },
    {
      "columnName": "srcAccessType",
      "dataType": "string"
    },
    {
      "columnName": "ratType",
      "dataType": "long"
    },
    {
      "columnName": "realm",
      "dataType": "string"
    },
    {
      "columnName": "realmGroup",
      "dataType": "string"
    },
    {
      "columnName": "rorApplied",
      "dataType": "string"
    },
    {
      "columnName": "rorType",
      "dataType": "string"
    },
    {
      "columnName": "usageCatchUpInd",
      "dataType": "string"
    },
    {
      "columnName": "resourcetype",
      "dataType": "string"
    },
    {
      "columnName": "resourceValue",
      "dataType": "string"
    },
    {
      "columnName": "customerBrand",
      "dataType": "string"
    },
    {
      "columnName": "customerSubBrand",
      "dataType": "string"
    },
    {
      "columnName": "paymentCategoryKey",
      "dataType": "string"
    },
    {
      "columnName": "subscriptionType",
      "dataType": "string"
    },
    {
      "columnName": "eventEndTime",
      "dataType": "long"
    },
    {
      "columnName": "l9SubscriberKey",
      "dataType": "long"
    },
    {
      "columnName": "fileSourceId",
      "dataType": "string"
    },
    {
      "columnName": "refundInd",
      "dataType": "string"
    },
    {
      "columnName": "priorBalance",
      "dataType": "double"
    },
    {
      "columnName": "allowanceUnitsApplied",
      "dataType": "string"
    },
    {
      "columnName": "monetaryAllowanceApplied",
      "dataType": "string"
    },
    {
      "columnName": "chargeStartTime",
      "dataType": "long"
    },
    {
      "columnName": "balanceAmount",
      "dataType": "double"
    },
    {
      "columnName": "eventMode",
      "dataType": "long"
    },
    {
      "columnName": "allowanceDropIndicator",
      "dataType": "string"
    },
    {
      "columnName": "markupAmount",
      "dataType": "double"
    },
    {
      "columnName": "settlementInd",
      "dataType": "string"
    },
    {
      "columnName": "billClass",
      "dataType": "string"
    },
    {
      "columnName": "cappingDiscountAmount",
      "dataType": "double"
    },
    {
      "columnName": "futurestring1",
      "dataType": "string"
    },
    {
      "columnName": "futurestring2",
      "dataType": "string"
    },
    {
      "columnName": "futurestring3",
      "dataType": "string"
    },
    {
      "columnName": "futurestring4",
      "dataType": "string"
    },
    {
      "columnName": "futurestring5",
      "dataType": "string"
    },
    {
      "columnName": "itemdescription",
      "dataType": "string"
    },
    {
      "columnName": "filetimestamp",
      "dataType": "long"
    },
    {
      "columnName": "file_nm",
      "dataType": "string"
    },
    {
      "columnName": "deleteindicator_",
      "dataType": "boolean"
    },
    {
      "columnName": "creationtimestamp_",
      "dataType": "long"
    },
    {
      "columnName": "last_core_ppu_date",
      "dataType": "date"
    },
    {
      "columnName": "last_data_ppu_date",
      "dataType": "date"
    },
    {
      "columnName": "p_workflow_id",
      "dataType": "string"
    },
    {
      "columnName": "p_attempt",
      "dataType": "integer"
    },
    {
      "columnName": "p_state",
      "dataType": "string"
    }
  ],
  "columnMapping": [
    {
      "sourceColumn": "eventid",
      "targetColumn": "eventId"
    },
    {
      "sourceColumn": "originaleventid",
      "targetColumn": "originalEventId"
    },
    {
      "sourceColumn": "eventstarttime",
      "targetColumn": "eventStartTime"
    },
    {
      "sourceColumn": "subscriberkey",
      "targetColumn": "subscriberKey"
    },
    {
      "sourceColumn": "servicetypekey",
      "targetColumn": "serviceTypeKey"
    },
    {
      "sourceColumn": "cellkey",
      "targetColumn": "cellKey"
    },
    {
      "sourceColumn": "lastcallingcellkey",
      "targetColumn": "lastCallingCellKey"
    },
    {
      "sourceColumn": "eventdirectionind",
      "targetColumn": "eventDirectionInd"
    },
    {
      "sourceColumn": "destinationtype",
      "targetColumn": "destinationType"
    },
    {
      "sourceColumn": "customerkey",
      "targetColumn": "customerKey"
    },
    {
      "sourceColumn": "callingimei",
      "targetColumn": "callingImei"
    },
    {
      "sourceColumn": "imsi",
      "targetColumn": "imsi"
    },
    {
      "sourceColumn": "roamingflag",
      "targetColumn": "roamingFlag"
    },
    {
      "sourceColumn": "billingcyclekey",
      "targetColumn": "billingCycleKey"
    },
    {
      "sourceColumn": "billingofferkey",
      "targetColumn": "billingOfferKey"
    },
    {
      "sourceColumn": "totaldatavolume",
      "targetColumn": "totalDataVolume"
    },
    {
      "sourceColumn": "actualduration",
      "targetColumn": "actualDuration"
    },
    {
      "sourceColumn": "roundedunit",
      "targetColumn": "roundedUnit"
    },
    {
      "sourceColumn": "chargeamount",
      "targetColumn": "chargeAmount"
    },
    {
      "sourceColumn": "originalcurrencychargeamount",
      "targetColumn": "originalCurrencyChargeAmount"
    },
    {
      "sourceColumn": "roamingtaxamount",
      "targetColumn": "roamingTaxAmount"
    },
    {
      "sourceColumn": "freeallowanceamount",
      "targetColumn": "freeAllowanceAmount"
    },
    {
      "sourceColumn": "discountamount",
      "targetColumn": "discountAmount"
    },
    {
      "sourceColumn": "additionalchargeamount",
      "targetColumn": "additionalChargeAmount"
    },
    {
      "sourceColumn": "originalchargeamount",
      "targetColumn": "originalChargeAmount"
    },
    {
      "sourceColumn": "postallowancechargeamount",
      "targetColumn": "postAllowanceChargeAmount"
    },
    {
      "sourceColumn": "monetarychargeamount",
      "targetColumn": "monetaryChargeAmount"
    },
    {
      "sourceColumn": "discountedchargeamount",
      "targetColumn": "discountedChargeAmount"
    },
    {
      "sourceColumn": "subscribertypekey",
      "targetColumn": "subscriberTypeKey"
    },
    {
      "sourceColumn": "recordingdeviceid",
      "targetColumn": "recordingDeviceId"
    },
    {
      "sourceColumn": "calltypekey",
      "targetColumn": "callTypeKey"
    },
    {
      "sourceColumn": "terminationreason",
      "targetColumn": "terminationReason"
    },
    {
      "sourceColumn": "cyclemonth",
      "targetColumn": "cycleMonth"
    },
    {
      "sourceColumn": "cycleyear",
      "targetColumn": "cycleYear"
    },
    {
      "sourceColumn": "callingnumber",
      "targetColumn": "callingNumber"
    },
    {
      "sourceColumn": "callednumber",
      "targetColumn": "calledNumber"
    },
    {
      "sourceColumn": "fnfind",
      "targetColumn": "fnFind"
    },
    {
      "sourceColumn": "customusergroupind",
      "targetColumn": "customUserGroupInd"
    },
    {
      "sourceColumn": "reratetypeflag",
      "targetColumn": "rerateTypeFlag"
    },
    {
      "sourceColumn": "chargecodekey",
      "targetColumn": "chargeCodeKey"
    },
    {
      "sourceColumn": "specialnumbergroup",
      "targetColumn": "specialNumberGroup"
    },
    {
      "sourceColumn": "specialnumberkey",
      "targetColumn": "specialNumberKey"
    },
    {
      "sourceColumn": "accesscode",
      "targetColumn": "accessCode"
    },
    {
      "sourceColumn": "calledzone",
      "targetColumn": "calledZone"
    },
    {
      "sourceColumn": "allowancecategory",
      "targetColumn": "allowanceCategory"
    },
    {
      "sourceColumn": "terminatingcountrykey",
      "targetColumn": "terminatingCountryKey"
    },
    {
      "sourceColumn": "calledregioncode",
      "targetColumn": "calledRegionCode"
    },
    {
      "sourceColumn": "freeduration",
      "targetColumn": "freeDuration"
    },
    {
      "sourceColumn": "locationareacode",
      "targetColumn": "locationAreaCode"
    },
    {
      "sourceColumn": "downstreamdatavolume",
      "targetColumn": "downstreamDataVolume"
    },
    {
      "sourceColumn": "upstreamdatavolume",
      "targetColumn": "upstreamDataVolume"
    },
    {
      "sourceColumn": "cityname",
      "targetColumn": "cityName"
    },
    {
      "sourceColumn": "provincename",
      "targetColumn": "provinceName"
    },
    {
      "sourceColumn": "tariffclass",
      "targetColumn": "tariffClass"
    },
    {
      "sourceColumn": "tariffgroup",
      "targetColumn": "tariffGroup"
    },
    {
      "sourceColumn": "financialaccountkey",
      "targetColumn": "financialAccountKey"
    },
    {
      "sourceColumn": "paychannelkey",
      "targetColumn": "payChannelKey"
    },
    {
      "sourceColumn": "roamingroundedvolume",
      "targetColumn": "roamingRoundedVolume"
    },
    {
      "sourceColumn": "billingcycleinstancekey",
      "targetColumn": "billingCycleInstanceKey"
    },
    {
      "sourceColumn": "producttype",
      "targetColumn": "productType"
    },
    {
      "sourceColumn": "vascode",
      "targetColumn": "vasCode"
    },
    {
      "sourceColumn": "accesspointname",
      "targetColumn": "accessPointName"
    },
    {
      "sourceColumn": "calledcountrycode",
      "targetColumn": "calledCountryCode"
    },
    {
      "sourceColumn": "calledimei",
      "targetColumn": "calledImei"
    },
    {
      "sourceColumn": "originatingcountrykey",
      "targetColumn": "originatingCountryKey"
    },
    {
      "sourceColumn": "eventtypename",
      "targetColumn": "eventTypeName"
    },
    {
      "sourceColumn": "roamingroundedduration",
      "targetColumn": "roamingRoundedDuration"
    },
    {
      "sourceColumn": "applicationid",
      "targetColumn": "applicationId"
    },
    {
      "sourceColumn": "freeunits",
      "targetColumn": "freeUnits"
    },
    {
      "sourceColumn": "freeoccurrence",
      "targetColumn": "freeOccurrence"
    },
    {
      "sourceColumn": "servicefilter",
      "targetColumn": "serviceFilter"
    },
    {
      "sourceColumn": "tadigcode",
      "targetColumn": "tadigCode"
    },
    {
      "sourceColumn": "callsubtypecode",
      "targetColumn": "callSubtypeCode"
    },
    {
      "sourceColumn": "urlgroup",
      "targetColumn": "urlGroup"
    },
    {
      "sourceColumn": "accesspointgroupcode",
      "targetColumn": "accessPointGroupCode"
    },
    {
      "sourceColumn": "unitofmeasureind",
      "targetColumn": "unitOfMeasureInd"
    },
    {
      "sourceColumn": "billingarrangementkey",
      "targetColumn": "billingArrangementKey"
    },
    {
      "sourceColumn": "eventstate",
      "targetColumn": "eventState"
    },
    {
      "sourceColumn": "targetcustomerkey",
      "targetColumn": "targetCustomerKey"
    },
    {
      "sourceColumn": "amfileid",
      "targetColumn": "amFileId"
    },
    {
      "sourceColumn": "lastcalledcellid",
      "targetColumn": "lastCalledCellId"
    },
    {
      "sourceColumn": "callednumbercellkey",
      "targetColumn": "calledNumberCellKey"
    },
    {
      "sourceColumn": "callednumberlocationarea",
      "targetColumn": "calledNumberLocationArea"
    },
    {
      "sourceColumn": "contenttype",
      "targetColumn": "contentType"
    },
    {
      "sourceColumn": "customersubtypekey",
      "targetColumn": "customerSubTypeKey"
    },
    {
      "sourceColumn": "customertypekey",
      "targetColumn": "customerTypeKey"
    },
    {
      "sourceColumn": "datacappingtype",
      "targetColumn": "dataCappingType"
    },
    {
      "sourceColumn": "filesequence",
      "targetColumn": "fileSequence"
    },
    {
      "sourceColumn": "srcaccesstype",
      "targetColumn": "srcAccessType"
    },
    {
      "sourceColumn": "rattype",
      "targetColumn": "ratType"
    },
    {
      "sourceColumn": "realm",
      "targetColumn": "realm"
    },
    {
      "sourceColumn": "realmgroup",
      "targetColumn": "realmGroup"
    },
    {
      "sourceColumn": "rorapplied",
      "targetColumn": "rorApplied"
    },
    {
      "sourceColumn": "rortype",
      "targetColumn": "rorType"
    },
    {
      "sourceColumn": "usagecatchupind",
      "targetColumn": "usageCatchUpInd"
    },
    {
      "sourceColumn": "resourcetype",
      "targetColumn": "resourcetype"
    },
    {
      "sourceColumn": "resourcevalue",
      "targetColumn": "resourceValue"
    },
    {
      "sourceColumn": "customerbrand",
      "targetColumn": "customerBrand"
    },
    {
      "sourceColumn": "customersubbrand",
      "targetColumn": "customerSubBrand"
    },
    {
      "sourceColumn": "paymentcategorykey",
      "targetColumn": "paymentCategoryKey"
    },
    {
      "sourceColumn": "subscriptiontype",
      "targetColumn": "subscriptionType"
    },
    {
      "sourceColumn": "eventendtime",
      "targetColumn": "eventEndTime"
    },
    {
      "sourceColumn": "l9subscriberkey",
      "targetColumn": "l9SubscriberKey"
    },
    {
      "sourceColumn": "filesourceid",
      "targetColumn": "fileSourceId"
    },
    {
      "sourceColumn": "refundind",
      "targetColumn": "refundInd"
    },
    {
      "sourceColumn": "priorbalance",
      "targetColumn": "priorBalance"
    },
    {
      "sourceColumn": "allowanceunitsapplied",
      "targetColumn": "allowanceUnitsApplied"
    },
    {
      "sourceColumn": "monetaryallowanceapplied",
      "targetColumn": "monetaryAllowanceApplied"
    },
    {
      "sourceColumn": "chargestarttime",
      "targetColumn": "chargeStartTime"
    },
    {
      "sourceColumn": "balanceamount",
      "targetColumn": "balanceAmount"
    },
    {
      "sourceColumn": "eventmode",
      "targetColumn": "eventMode"
    },
    {
      "sourceColumn": "allowancedropindicator",
      "targetColumn": "allowanceDropIndicator"
    },
    {
      "sourceColumn": "markupamount",
      "targetColumn": "markupAmount"
    },
    {
      "sourceColumn": "settlementind",
      "targetColumn": "settlementInd"
    },
    {
      "sourceColumn": "billclass",
      "targetColumn": "billClass"
    },
    {
      "sourceColumn": "cappingdiscountamount",
      "targetColumn": "cappingDiscountAmount"
    },
    {
      "sourceColumn": "futurestring1",
      "targetColumn": "futurestring1"
    },
    {
      "sourceColumn": "futurestring2",
      "targetColumn": "futurestring2"
    },
    {
      "sourceColumn": "futurestring3",
      "targetColumn": "futurestring3"
    },
    {
      "sourceColumn": "futurestring4",
      "targetColumn": "futurestring4"
    },
    {
      "sourceColumn": "futurestring5",
      "targetColumn": "futurestring5"
    },
    {
      "sourceColumn": "itemdescription",
      "targetColumn": "itemdescription"
    },
    {
      "sourceColumn": "filetimestamp",
      "targetColumn": "filetimestamp"
    },
    {
      "sourceColumn": "file_nm",
      "targetColumn": "file_nm"
    },
    {
      "sourceColumn": "deleteindicator_",
      "targetColumn": "deleteindicator_"
    },
    {
      "sourceColumn": "creationtimestamp_",
      "targetColumn": "creationtimestamp_"
    },
    {
      "sourceColumn": "p_date",
      "targetColumn": "p_date"
    },
    {
      "sourceColumn": "p_workflow_id",
      "targetColumn": "p_workflow_id"
    },
    {
      "sourceColumn": "p_attempt",
      "targetColumn": "p_attempt"
    },
    {
      "sourceColumn": "p_state",
      "targetColumn": "p_state"
    }
  ],
  "validationsDetails": [
    {
      "columnName": "p_state",
      "validationFunction": "FilterPublishedPartitionValidator"
    }
  ],
  "transformationsDetails": [
    {
      "sourceColumns": [
        "eventTypeName",
        "freeAllowanceAmount",
        "chargeAmount",
        "allowanceUnitsApplied",
        "subscriberKey"
      ],
      "targetColumn": "last_core_ppu_date",
      "transformationFunction": "ADHFilter"
    }
  ],
  "storageDetails": [
    {
      "recordType": "invalid-records",
      "dataFormat": "parquet",
      "persistFlag": "true",
      "fileSystem": "hdfs",
      "pathUrl": "/zzx/rel/s2/data/uup/metadata/invalid-records",
      "storageHandler": "PersistHadoopFS"
    },
    {
      "recordType": "audit-records",
      "dataFormat": "parquet",
      "persistFlag": "false",
      "fileSystem": "hdfs",
      "pathUrl": "/zzx/rel/s2/data/uup/metadata/audit",
      "storageHandler": "PersistHadoopFS"
    },
    {
      "recordType": "valid-records",
      "dataFormat": "parquet",
      "fileSystem": "hdfs",
      "pathUrl": "/zzx/rel/s2/data/uup/entity_store/mutables_usageprepaidevent",
      "storageHandler": "PersistHadoopFS"
    }
  ]
}